metric,f1-score,location,precision,recall
0,0.7849504604774998,Casa,0.8125790710283752,0.75913887716336
1,0.762461709830131,Deslocamento,0.6778905669720228,0.8711422208081451
2,0.0582027502398465,Outro,0.5652173913043478,0.030681051921780174
