users_average_entropy,users_median_entropy,users_p75_entropy,users_p95_entropy
0,0.6309462284740852,0.734281187724146,0.8821798901012391,1.0809091684904295
1,0.6309462284740852,0.734281187724146,0.8821798901012391,1.0809091684904295
2,0.720560725905203,0.9735344045347987,1.0441252756905022,1.0914088447051777
3,0.720560725905203,0.9735344045347987,1.0441252756905022,1.0914088447051777
4,0.3252776676649759,0.43326318007947007,0.5193905692660685,0.6957230927766632
5,0.3252776676649759,0.43326318007947007,0.5193905692660685,0.6957230927766632
6,0.9516646643286738,0.9621929878021367,1.0331983450386435,1.0898634716244762
7,0.9516646643286738,0.9621929878021367,1.0331983450386435,1.0898634716244762
8,0.46075891496780125,0.5896800016691855,0.6519861910337121,0.9548934861206122
9,0.46075891496780125,0.5896800016691855,0.6519861910337121,0.9548934861206122
10,0.8681437199717484,0.9565403901541606,1.0467446370905273,1.103924420567612
11,0.8681437199717484,0.9565403901541606,1.0467446370905273,1.103924420567612
12,0.30846608370391415,0.37932996597080926,0.6278979573221776,0.6972315661200258
13,0.30846608370391415,0.37932996597080926,0.6278979573221776,0.6972315661200258
14,0.5383795759509015,0.6707176965346353,0.7430398393995281,0.9714641837703903
15,0.5383795759509015,0.6707176965346353,0.7430398393995281,0.9714641837703903
16,0.479830738567912,0.5185536288920258,0.6901249937746079,0.8195371955424666
17,0.479830738567912,0.5185536288920258,0.6901249937746079,0.8195371955424666
18,0.6556252682025001,0.6850311609413964,0.8290449807111082,0.9181303351362778
19,0.6556252682025001,0.6850311609413964,0.8290449807111082,0.9181303351362778
20,0.6997877946653566,0.8369121281532563,0.9250772168553212,1.0734512497965807
21,0.6997877946653566,0.8369121281532563,0.9250772168553212,1.0734512497965807
22,0.6390706693657067,0.8130466716921574,0.9777636975811229,1.060670892321005
23,0.6390706693657067,0.8130466716921574,0.9777636975811229,1.060670892321005
24,0.30416919053505154,0.0,0.6346876490243689,0.9702129190916259
25,0.30416919053505154,0.0,0.6346876490243689,0.9702129190916259
26,0.4095214926744587,0.5497303772067652,0.621470593245528,0.6860532823229446
27,0.4095214926744587,0.5497303772067652,0.621470593245528,0.6860532823229446
28,0.46375452627202607,0.5842449843741933,0.6978564744558164,0.9153063318733761
29,0.46375452627202607,0.5842449843741933,0.6978564744558164,0.9153063318733761
30,0.14308989288455637,0.0,0.09483249149270231,0.6408386932607295
31,0.14308989288455637,0.0,0.09483249149270231,0.6408386932607295
32,0.07821000151979639,0.0,0.14029091490467088,0.24911856538246777
33,0.07821000151979639,0.0,0.14029091490467088,0.24911856538246777
34,0.3241317980440092,0.0,0.6525159783324317,0.9413854748765005
35,0.3241317980440092,0.0,0.6525159783324317,0.9413854748765005
36,0.7466584456609342,0.8584662094117137,1.035120147416417,1.0934070589102625
37,0.7466584456609342,0.8584662094117137,1.035120147416417,1.0934070589102625
38,0.17083970971038717,0.0,0.3877231443013419,0.6805414625045167
39,0.17083970971038717,0.0,0.3877231443013419,0.6805414625045167
40,0.2882629965962383,0.3698079002633071,0.4922508013209358,0.6135562870544584
41,0.2882629965962383,0.3698079002633071,0.4922508013209358,0.6135562870544584
42,0.47203595160069156,0.5632922480518592,0.6922195467289682,0.7220890314637283
43,0.47203595160069156,0.5632922480518592,0.6922195467289682,0.7220890314637283
44,0.3293781183067675,0.28745005855189476,0.5419680777736013,0.6937987815009118
45,0.3293781183067675,0.28745005855189476,0.5419680777736013,0.6937987815009118
46,0.3474895698485123,0.44156608053975405,0.621470593245528,0.6963101783195748
47,0.3474895698485123,0.44156608053975405,0.621470593245528,0.6963101783195748
48,0.27350400412307024,0.26768943398870254,0.5038021951086988,0.6720723388984864
49,0.27350400412307024,0.26768943398870254,0.5038021951086988,0.6720723388984864
50,0.3646228094289773,0.42129206504474026,0.6240690008721749,0.917415922777659
51,0.3646228094289773,0.42129206504474026,0.6240690008721749,0.917415922777659
52,0.36755703466106265,0.4155469032931138,0.6306569596095741,0.9401018000872061
53,0.36755703466106265,0.4155469032931138,0.6306569596095741,0.9401018000872061
54,0.32029057265592176,0.3508437237581221,0.5783704087804151,0.6969223300428835
55,0.32029057265592176,0.3508437237581221,0.5783704087804151,0.6969223300428835
56,0.4231983688467984,0.5872215773940093,0.6978564744558164,0.8073175263034243
57,0.4231983688467984,0.5872215773940093,0.6978564744558164,0.8073175263034243
58,0.4887812375774476,0.5446405327417154,0.6532070322587832,0.9346244099981141
59,0.4887812375774476,0.5446405327417154,0.6532070322587832,0.9346244099981141
60,0.44144347885217866,0.6207920379978752,0.7202821334367042,0.8678629542133267
61,0.44144347885217866,0.6207920379978752,0.7202821334367042,0.8678629542133267
62,0.10020892014109838,0.0,0.04818619184980183,0.5162475156380162
63,0.10020892014109838,0.0,0.04818619184980183,0.5162475156380162
64,0.4549894342702012,0.6028479978624697,0.7445984675214203,1.0889022028226538
65,0.4549894342702012,0.6028479978624697,0.7445984675214203,1.0889022028226538
66,0.4306084805663465,0.4536223554887526,0.6956202555370985,1.0138672400251683
67,0.4306084805663465,0.4536223554887526,0.6956202555370985,1.0138672400251683
68,0.255101729838991,0.056640187904539674,0.5862506068250231,0.6948156270949811
69,0.255101729838991,0.056640187904539674,0.5862506068250231,0.6948156270949811
70,0.23590225344010538,0.056640187904539674,0.48960636486566883,0.6971001153459035
71,0.23590225344010538,0.056640187904539674,0.48960636486566883,0.6971001153459035
72,0.27519170437006535,0.16475244208641251,0.4623142308456037,0.754754537852372
73,0.27519170437006535,0.16475244208641251,0.4623142308456037,0.754754537852372
74,0.17497529535278428,0.0,0.33326923041990586,0.6408386932607295
75,0.17497529535278428,0.0,0.33326923041990586,0.6408386932607295
76,0.4430714092331305,0.5678860644347717,0.6978564744558164,0.9938943713570839
77,0.4430714092331305,0.5678860644347717,0.6978564744558164,0.9938943713570839
78,0.5478301211964286,0.6236268812700856,0.7765089275861415,0.949173604977566
79,0.5478301211964286,0.6236268812700856,0.7765089275861415,0.949173604977566
80,0.37281215100593024,0.5095095344698258,0.6262861907471461,0.6890992729284555
81,0.37281215100593024,0.5095095344698258,0.6262861907471461,0.6890992729284555
82,0.46187864310225385,0.4851821101932426,0.7429198315470503,0.9556813720258797
83,0.46187864310225385,0.4851821101932426,0.7429198315470503,0.9556813720258797
84,0.6665039604869408,0.7720982730699877,1.0589558152058598,1.0958880559167186
85,0.6665039604869408,0.7720982730699877,1.0589558152058598,1.0958880559167186
86,0.27096432272681503,0.0,0.6408386932607295,0.6969223300428835
87,0.27096432272681503,0.0,0.6408386932607295,0.6969223300428835
88,0.3405809608436982,0.3961163226318746,0.5752003380561854,0.887545346044639
89,0.3405809608436982,0.3961163226318746,0.5752003380561854,0.887545346044639
90,0.17570043507195354,0.0,0.35120208724703716,0.6835281448389752
91,0.17570043507195354,0.0,0.35120208724703716,0.6835281448389752
92,0.3886711685982761,0.3827448212467588,0.6642845158997052,0.6978564744558164
93,0.3886711685982761,0.3827448212467588,0.6642845158997052,0.6978564744558164
94,0.33879652288951956,0.4008681762345193,0.5789616548754659,0.6893038072765533
95,0.33879652288951956,0.4008681762345193,0.5789616548754659,0.6893038072765533
96,0.6161148203129471,0.7320014277668571,1.0183345478136654,1.08724505014855
97,0.6161148203129471,0.7320014277668571,1.0183345478136654,1.08724505014855
98,0.32065005967276367,0.23591606659816,0.5052959442015389,0.96165523700866
99,0.32065005967276367,0.23591606659816,0.5052959442015389,0.96165523700866
100,0.6929753822960716,0.7439628037050673,0.9532060699368146,1.064654178458362
101,0.6929753822960716,0.7439628037050673,0.9532060699368146,1.064654178458362
102,0.4769251380926375,0.503069171071172,0.7840990431671805,0.9571701841861994
103,0.4769251380926375,0.503069171071172,0.7840990431671805,0.9571701841861994
104,0.2622477972858528,0.0,0.6408386932607295,0.6963101783195748
105,0.2622477972858528,0.0,0.6408386932607295,0.6963101783195748
106,0.5232606419203923,0.6390895614067716,0.6929314571257664,0.8471173615358069
107,0.5232606419203923,0.6390895614067716,0.6929314571257664,0.8471173615358069
108,0.5455757810004537,0.6594577473338061,0.8043818112883971,0.901969701401392
109,0.5455757810004537,0.6594577473338061,0.8043818112883971,0.901969701401392
110,0.3284682109726315,0.33931394665405884,0.6069884494795169,0.7342053099676842
111,0.3284682109726315,0.33931394665405884,0.6069884494795169,0.7342053099676842
112,0.41766343756254803,0.4680210349139636,0.6626526716735086,0.9183515069777173
113,0.41766343756254803,0.4680210349139636,0.6626526716735086,0.9183515069777173
114,0.49076317370686934,0.5876792765482985,0.6391874005076928,0.8636445241089283
115,0.49076317370686934,0.5876792765482985,0.6391874005076928,0.8636445241089283
116,0.474506816709462,0.5134560493043001,0.7197769351220695,0.9614497392635286
117,0.474506816709462,0.5134560493043001,0.7197769351220695,0.9614497392635286
118,0.48350817621818487,0.5899336243092559,0.6704954002729708,0.9600366901157891
119,0.48350817621818487,0.5899336243092559,0.6704954002729708,0.9600366901157891
120,0.3279340411370242,0.314242394918976,0.6253414216741311,0.6972176493747371
121,0.3279340411370242,0.314242394918976,0.6253414216741311,0.6972176493747371
122,0.6633394021238628,0.7489942463686056,0.9508315252146123,1.0681389082084751
123,0.6633394021238628,0.7489942463686056,0.9508315252146123,1.0681389082084751
124,0.3404982985215067,0.3696934357760542,0.5178127359373689,0.7772572073926247
125,0.3404982985215067,0.3696934357760542,0.5178127359373689,0.7772572073926247
126,0.5764729633492169,0.655373804836199,0.8086313462265886,0.9677981231804804
127,0.5764729633492169,0.655373804836199,0.8086313462265886,0.9677981231804804
128,0.5671106465791753,0.7058947571231085,0.9622423703643972,1.0426175454999969
129,0.5671106465791753,0.7058947571231085,0.9622423703643972,1.0426175454999969
130,0.6672614660438343,0.7718766399454402,0.9827164906316394,1.0860579866023925
131,0.6672614660438343,0.7718766399454402,0.9827164906316394,1.0860579866023925
132,0.5747789158481736,0.6267099448870999,0.9506910613968067,1.0450424175614559
133,0.5747789158481736,0.6267099448870999,0.9506910613968067,1.0450424175614559
134,0.5496598745733469,0.6408386932607295,0.8160496560834355,1.0179871928457565
135,0.5496598745733469,0.6408386932607295,0.8160496560834355,1.0179871928457565
136,0.14151082908760454,0.0,0.25075142795104655,0.6247086486729229
137,0.14151082908760454,0.0,0.25075142795104655,0.6247086486729229
138,0.41350149767294253,0.47129803578342,0.6092290735397332,0.7753669425491048
139,0.41350149767294253,0.47129803578342,0.6092290735397332,0.7753669425491048
140,0.5273010302840104,0.6611302195753626,0.7820472786250201,0.9196875598867016
141,0.5273010302840104,0.6611302195753626,0.7820472786250201,0.9196875598867016
142,0.4538151799029448,0.5432301735051814,0.7544270377556839,0.924337477761833
143,0.4538151799029448,0.5432301735051814,0.7544270377556839,0.924337477761833
144,0.3545273215313009,0.37816968082715285,0.5259862689530869,0.7384816435573158
145,0.3545273215313009,0.37816968082715285,0.5259862689530869,0.7384816435573158
146,0.5881824101293102,0.7049840151664609,0.9077805550925646,1.0020996397840514
147,0.5881824101293102,0.7049840151664609,0.9077805550925646,1.0020996397840514
148,0.4214896506139062,0.5291608124071061,0.6825249531443758,0.7938635111360417
149,0.4214896506139062,0.5291608124071061,0.6825249531443758,0.7938635111360417
150,0.40438774825107027,0.6408386932607295,0.6978564744558164,0.8927947552712618
151,0.40438774825107027,0.6408386932607295,0.6978564744558164,0.8927947552712618
152,0.6985488995892462,0.9500043937863603,1.0116104042899523,1.0407682290934352
153,0.6985488995892462,0.9500043937863603,1.0116104042899523,1.0407682290934352
154,0.6049841089201433,0.7707544951842551,0.8446256453402704,1.0502388466382175
155,0.6049841089201433,0.7707544951842551,0.8446256453402704,1.0502388466382175
156,0.786074100300468,0.9152012018774813,0.9970783570010214,1.0832972983044484
157,0.786074100300468,0.9152012018774813,0.9970783570010214,1.0832972983044484
158,0.34845760324578356,0.3906093029442076,0.6253070809548942,0.706218893640186
159,0.34845760324578356,0.3906093029442076,0.6253070809548942,0.706218893640186
160,0.28625299640392665,0.31699871465226503,0.48770017269387844,0.6749368098395895
161,0.28625299640392665,0.31699871465226503,0.48770017269387844,0.6749368098395895
162,0.4505306978286704,0.6279266265839285,0.7370052535954388,0.9926873055993292
163,0.4505306978286704,0.6279266265839285,0.7370052535954388,0.9926873055993292
164,0.5360538288886763,0.64374665247896,0.9028207150553751,1.057396250953934
165,0.5360538288886763,0.64374665247896,0.9028207150553751,1.057396250953934
166,0.26917963923496113,0.24215245805792537,0.44539836100851654,0.6576362560727766
167,0.26917963923496113,0.24215245805792537,0.44539836100851654,0.6576362560727766
168,0.31919970590017555,0.0,0.6408386932607295,0.9340591695526064
169,0.31919970590017555,0.0,0.6408386932607295,0.9340591695526064
170,0.6752068189999318,0.8094413319921552,1.0647173560841992,1.0924894746759743
171,0.6752068189999318,0.8094413319921552,1.0647173560841992,1.0924894746759743
172,0.4124246729110852,0.3868514945765959,0.6828294893837894,1.0159624665415294
173,0.4124246729110852,0.3868514945765959,0.6828294893837894,1.0159624665415294
174,0.3770206445276085,0.3652660266089232,0.6740075799004304,1.0340959531014862
175,0.3770206445276085,0.3652660266089232,0.6740075799004304,1.0340959531014862
176,0.5053205113725259,0.5857170136343907,0.6693663314168671,0.8946484513017153
177,0.5053205113725259,0.5857170136343907,0.6693663314168671,0.8946484513017153
178,0.5301455902139351,0.6356327486793283,0.8767995643110755,1.0549640558797684
179,0.5301455902139351,0.6356327486793283,0.8767995643110755,1.0549640558797684
180,0.5771761817580586,0.6669015698355855,0.8121308329449345,0.9950125312429213
181,0.5771761817580586,0.6669015698355855,0.8121308329449345,0.9950125312429213
182,0.33511570372691424,0.4391869466383972,0.5709928728836764,0.6904556816727205
183,0.33511570372691424,0.4391869466383972,0.5709928728836764,0.6904556816727205
184,0.46063776791824546,0.5900706948828629,0.6831586494569749,0.8327550130306115
185,0.46063776791824546,0.5900706948828629,0.6831586494569749,0.8327550130306115
186,0.4239210244230846,0.5528790504945349,0.6500250596247756,0.7491424740894495
187,0.4239210244230846,0.5528790504945349,0.6500250596247756,0.7491424740894495
188,0.5032376890714929,0.5916223516445049,0.7820565660614691,0.9934990191871031
189,0.5032376890714929,0.5916223516445049,0.7820565660614691,0.9934990191871031
190,0.43698386249779786,0.4536223554887526,0.6917481939060357,0.8590331009124154
191,0.43698386249779786,0.4536223554887526,0.6917481939060357,0.8590331009124154
192,0.3254945091451648,0.2880887083860523,0.5024896269938625,0.6963101783195748
193,0.3254945091451648,0.2880887083860523,0.5024896269938625,0.6963101783195748
194,0.679615505530892,0.8698671652155039,1.0208742548538734,1.080691162325232
195,0.679615505530892,0.8698671652155039,1.0208742548538734,1.080691162325232
196,0.34387562562445706,0.32284894008882337,0.5884749381704234,0.756295435293943
197,0.34387562562445706,0.32284894008882337,0.5884749381704234,0.756295435293943
198,0.1567605511271314,0.11789978289587023,0.25641948907693213,0.5152447051679907
199,0.1567605511271314,0.11789978289587023,0.25641948907693213,0.5152447051679907
200,0.6415685891609388,0.7656794119247201,0.9757977791699013,1.0893315844258318
201,0.6415685891609388,0.7656794119247201,0.9757977791699013,1.0893315844258318
202,0.15767057032233972,0.0,0.1259505487771747,0.6948156270949811
203,0.15767057032233972,0.0,0.1259505487771747,0.6948156270949811
204,0.4250151040065015,0.42313709360536067,0.7017680827914194,1.0120404714232334
205,0.4250151040065015,0.42313709360536067,0.7017680827914194,1.0120404714232334
206,0.5434595463194146,0.6640583055158494,0.856354254182047,0.9309832919976548
207,0.5434595463194146,0.6640583055158494,0.856354254182047,0.9309832919976548
208,0.14473425585028726,0.0,0.3359287389393116,0.5568026672437556
209,0.14473425585028726,0.0,0.3359287389393116,0.5568026672437556
210,0.5996770754235122,0.6815667416984365,0.9291193363797824,1.0456674567869986
211,0.5996770754235122,0.6815667416984365,0.9291193363797824,1.0456674567869986
212,0.7740493302985522,0.8645905687670126,0.9702340571267922,1.0195747106093136
213,0.7740493302985522,0.8645905687670126,0.9702340571267922,1.0195747106093136
214,0.7050748099451934,0.9200359259364381,1.0052790563350027,1.0491004505077155
215,0.7050748099451934,0.9200359259364381,1.0052790563350027,1.0491004505077155
216,0.4607666745579626,0.6086744184586682,0.664720400149629,1.007452739640721
217,0.4607666745579626,0.6086744184586682,0.664720400149629,1.007452739640721
218,0.35392522810134747,0.38320862819588,0.5721857116128273,0.8018094073547408
219,0.35392522810134747,0.38320862819588,0.5721857116128273,0.8018094073547408
220,0.43518825380204484,0.4961012659168568,0.6826522376516397,0.9580847225861804
221,0.43518825380204484,0.4961012659168568,0.6826522376516397,0.9580847225861804
222,0.6209321998626588,0.8185703031645549,0.8872244552128137,1.0499144165210847
223,0.6209321998626588,0.8185703031645549,0.8872244552128137,1.0499144165210847
224,0.40297500551678345,0.3685636801248718,0.6467650378760184,0.9795220152906671
225,0.40297500551678345,0.3685636801248718,0.6467650378760184,0.9795220152906671
226,0.7578143851009317,0.7312821439180902,0.9617217672077296,1.0756016588594444
227,0.7578143851009317,0.7312821439180902,0.9617217672077296,1.0756016588594444
228,0.40332051289591303,0.4332625173908463,0.7578773120077321,0.9556813720258797
229,0.40332051289591303,0.4332625173908463,0.7578773120077321,0.9556813720258797
230,0.5184945267084454,0.5938886910768257,0.7752629741329353,0.9038861437958761
231,0.5184945267084454,0.5938886910768257,0.7752629741329353,0.9038861437958761
232,0.2749026513489758,0.2058051453300885,0.5440347332951676,0.6975233765593367
233,0.2749026513489758,0.2058051453300885,0.5440347332951676,0.6975233765593367
234,0.24532368324190998,0.0,0.5494446702998209,0.7456048931556298
235,0.24532368324190998,0.0,0.5494446702998209,0.7456048931556298
236,0.5694020329144819,0.6905727370647462,0.8160218646256526,0.9643533217311904
237,0.5694020329144819,0.6905727370647462,0.8160218646256526,0.9643533217311904
238,0.6526272116086403,0.7573577733753057,0.9038265276181108,1.0001923371130823
239,0.6526272116086403,0.7573577733753057,0.9038265276181108,1.0001923371130823
240,0.43326973014614006,0.5098890236134651,0.6978564744558164,0.8921588565585074
241,0.43326973014614006,0.5098890236134651,0.6978564744558164,0.8921588565585074
242,0.34031766566420435,0.4041225031408273,0.5313961844441981,0.6381847703206406
243,0.34031766566420435,0.4041225031408273,0.5313961844441981,0.6381847703206406
244,0.5567511587867683,0.6538690778212237,0.7824753456059397,1.0394943506351075
245,0.5567511587867683,0.6538690778212237,0.7824753456059397,1.0394943506351075
246,0.19886885820607914,0.0,0.5661556917381776,0.6408386932607295
247,0.19886885820607914,0.0,0.5661556917381776,0.6408386932607295
248,0.1441594503125985,0.0,0.09483249149270231,0.6978564744558164
249,0.1441594503125985,0.0,0.09483249149270231,0.6978564744558164
250,0.5512836273686317,0.6941391193541334,0.8041446203720508,0.8964436610959251
251,0.5512836273686317,0.6941391193541334,0.8041446203720508,0.8964436610959251
252,0.4800333240359848,0.6269052846428187,0.7879853577884122,0.9412513929919316
253,0.4800333240359848,0.6269052846428187,0.7879853577884122,0.9412513929919316
254,0.6032821123560645,0.646342066643435,0.8077503237723869,0.9424116447435721
255,0.6032821123560645,0.646342066643435,0.8077503237723869,0.9424116447435721
256,0.3910496835062923,0.35466584341180507,0.6414723924455127,1.0011434775156696
257,0.3910496835062923,0.35466584341180507,0.6414723924455127,1.0011434775156696
258,0.4371469201488827,0.4751948161635813,0.6677606836838471,0.8014438791886768
259,0.4371469201488827,0.4751948161635813,0.6677606836838471,0.8014438791886768
260,0.30505519847033014,0.2542059553630795,0.5438743298203687,0.749245022460715
261,0.30505519847033014,0.2542059553630795,0.5438743298203687,0.749245022460715
262,0.4509611257969423,0.5231639325315987,0.6961772391602776,0.8559788988446556
263,0.4509611257969423,0.5231639325315987,0.6961772391602776,0.8559788988446556
264,0.4552759246341915,0.5455391558866082,0.6465367287798526,0.9382220170357944
265,0.4552759246341915,0.5455391558866082,0.6465367287798526,0.9382220170357944
266,0.22860475190595494,0.20783963630766844,0.37826026609237795,0.6480229281811092
267,0.22860475190595494,0.20783963630766844,0.37826026609237795,0.6480229281811092
268,0.3872365127886166,0.38846888672029345,0.5686760377521641,0.8748128798029444
269,0.3872365127886166,0.38846888672029345,0.5686760377521641,0.8748128798029444
270,0.5181756065011407,0.5796959571123521,0.7361235998275271,0.9520689008336749
271,0.5181756065011407,0.5796959571123521,0.7361235998275271,0.9520689008336749
272,0.3683687250315602,0.387336146479762,0.6587332721882037,0.8117563664777959
273,0.3683687250315602,0.387336146479762,0.6587332721882037,0.8117563664777959
274,0.7522700316105597,0.9395443157251956,1.0248734196707932,1.0692706068676663
275,0.7522700316105597,0.9395443157251956,1.0248734196707932,1.0692706068676663
276,0.5662522236016608,0.6408386932607295,0.8070904931071281,1.038363988003076
277,0.5662522236016608,0.6408386932607295,0.8070904931071281,1.038363988003076
278,0.7067855698565311,0.7356044952371883,0.946771500270216,1.0248498171671871
279,0.7067855698565311,0.7356044952371883,0.946771500270216,1.0248498171671871
280,0.4287710277539812,0.4727428288544934,0.7145693091869533,0.9701200585858076
281,0.4287710277539812,0.4727428288544934,0.7145693091869533,0.9701200585858076
282,0.3095371000248875,0.3318917406040237,0.4701028810179805,0.7149314394820374
283,0.3095371000248875,0.3318917406040237,0.4701028810179805,0.7149314394820374
284,0.27111715873865483,0.314242394918976,0.487766382095084,0.6681987188954461
285,0.27111715873865483,0.314242394918976,0.487766382095084,0.6681987188954461
286,0.43332309243157185,0.5044510640444727,0.5910818847835543,0.7004393942647188
287,0.43332309243157185,0.5044510640444727,0.5910818847835543,0.7004393942647188
288,0.7695127472574944,0.9364333099769275,0.9981795344453036,1.0814637858181853
289,0.7695127472574944,0.9364333099769275,0.9981795344453036,1.0814637858181853
290,0.3696442286330405,0.41222663321170994,0.5787005067292289,0.7164524155766686
291,0.3696442286330405,0.41222663321170994,0.5787005067292289,0.7164524155766686
292,0.5327759640669891,0.6376360045627171,0.6873199355734376,0.8648638560437516
293,0.5327759640669891,0.6376360045627171,0.6873199355734376,0.8648638560437516
294,0.3167103929602952,0.32386365862822475,0.49034272377006227,0.6631168537035189
295,0.3167103929602952,0.32386365862822475,0.49034272377006227,0.6631168537035189
296,0.39842159665484456,0.5306079048222475,0.6885680864197196,0.9824493632674591
297,0.39842159665484456,0.5306079048222475,0.6885680864197196,0.9824493632674591
298,0.5600223646167325,0.6249673367900175,0.8703613887339694,0.9336697619524498
299,0.5600223646167325,0.6249673367900175,0.8703613887339694,0.9336697619524498
300,0.42263061633852367,0.4980710400452967,0.634928412658013,0.794807172784526
301,0.42263061633852367,0.4980710400452967,0.634928412658013,0.794807172784526
302,0.622974914892887,0.6699666880115644,1.0364777195706558,1.104174586757403
303,0.622974914892887,0.6699666880115644,1.0364777195706558,1.104174586757403
304,0.3341612931519401,0.3289539525370193,0.6161344175659964,0.7168113396963148
305,0.3341612931519401,0.3289539525370193,0.6161344175659964,0.7168113396963148
306,0.37333752496664335,0.3603099972056788,0.6978564744558164,0.8845813909820884
307,0.37333752496664335,0.3603099972056788,0.6978564744558164,0.8845813909820884
308,0.371902257763105,0.5218460113613989,0.6483303169679935,0.7314550654772053
309,0.371902257763105,0.5218460113613989,0.6483303169679935,0.7314550654772053
310,0.25001373712294833,0.1533529089135007,0.4861150249058447,0.6570706952603131
311,0.25001373712294833,0.1533529089135007,0.4861150249058447,0.6570706952603131
312,0.40470325698193266,0.46984961161164596,0.7178685387903283,0.8540092820700779
313,0.40470325698193266,0.46984961161164596,0.7178685387903283,0.8540092820700779
314,0.24206325121670208,0.26986511722384243,0.36337308346143915,0.6408386932607295
315,0.24206325121670208,0.26986511722384243,0.36337308346143915,0.6408386932607295
316,0.09362355552832473,0.0,0.0,0.4901672677363348
317,0.09362355552832473,0.0,0.0,0.4901672677363348
318,0.4962228955549612,0.6895883392919009,0.8152510996983248,0.904202758604491
319,0.4962228955549612,0.6895883392919009,0.8152510996983248,0.904202758604491
320,0.17194981908664686,0.0,0.37672925192937445,0.559698823502436
321,0.17194981908664686,0.0,0.37672925192937445,0.559698823502436
322,0.4070132618461313,0.5438743298203687,0.6515809589320416,0.8467467566393144
323,0.4070132618461313,0.5438743298203687,0.6515809589320416,0.8467467566393144
324,0.24608321526699667,0.0,0.4735430322854027,0.7546801125416817
325,0.24608321526699667,0.0,0.4735430322854027,0.7546801125416817
326,0.3619487281986469,0.45631751432308104,0.6563603466445648,0.7377670631901788
327,0.3619487281986469,0.45631751432308104,0.6563603466445648,0.7377670631901788
328,0.4103575723170075,0.4765060749191864,0.5823719296688918,0.7759720432059489
329,0.4103575723170075,0.4765060749191864,0.5823719296688918,0.7759720432059489
330,0.5398353183075282,0.6978564744558164,0.8809567926518955,0.9212882128484836
331,0.5398353183075282,0.6978564744558164,0.8809567926518955,0.9212882128484836
332,0.5387824019540657,0.6107435172725233,0.7122206496230862,0.8616711666343821
333,0.5387824019540657,0.6107435172725233,0.7122206496230862,0.8616711666343821
334,0.2872493061983147,0.25701140083276175,0.587136840599837,0.6978564744558164
335,0.2872493061983147,0.25701140083276175,0.587136840599837,0.6978564744558164
336,0.3169128155162749,0.3080381898504165,0.505931097927432,0.6781013570481704
337,0.3169128155162749,0.3080381898504165,0.505931097927432,0.6781013570481704
338,0.23733996590591375,0.22946542673072318,0.4575080893263952,0.6296362430323466
339,0.23733996590591375,0.22946542673072318,0.4575080893263952,0.6296362430323466
340,0.3759252887902671,0.3961163226318746,0.6324398984895707,0.9562414656578642
341,0.3759252887902671,0.3961163226318746,0.6324398984895707,0.9562414656578642
342,0.3808611453402275,0.4419413573535215,0.6714304196733609,0.7730104993851676
343,0.3808611453402275,0.4419413573535215,0.6714304196733609,0.7730104993851676
344,0.4844913399381783,0.6007321498773196,0.6955122085986786,0.9594968453407371
345,0.4844913399381783,0.6007321498773196,0.6955122085986786,0.9594968453407371
346,0.3393071114760904,0.4654915032880431,0.6119603810728391,0.6834059334456198
347,0.3393071114760904,0.4654915032880431,0.6119603810728391,0.6834059334456198
348,0.5748636046513914,0.6739901570873694,0.7331387171212498,0.8906748657725969
349,0.5748636046513914,0.6739901570873694,0.7331387171212498,0.8906748657725969
350,0.7802009419733191,0.9672129249408172,1.0452224408442479,1.1003954305631987
351,0.7802009419733191,0.9672129249408172,1.0452224408442479,1.1003954305631987
352,0.4213908040748388,0.4703373445217027,0.6763741267574582,0.737384228598627
353,0.4213908040748388,0.4703373445217027,0.6763741267574582,0.737384228598627
354,0.26928617515702097,0.2995464764942015,0.476034284969458,0.6322911630551942
355,0.26928617515702097,0.2995464764942015,0.476034284969458,0.6322911630551942
356,0.5911928827012058,0.7404653845509157,0.8943558068150563,0.9783469747670525
357,0.5911928827012058,0.7404653845509157,0.8943558068150563,0.9783469747670525
358,0.5467210492216638,0.6182249582415396,0.9479884446404576,1.0831384545541187
359,0.5467210492216638,0.6182249582415396,0.9479884446404576,1.0831384545541187
360,0.3460342873860253,0.42522754961198383,0.5699772327103731,0.7338065513839865
361,0.3460342873860253,0.42522754961198383,0.5699772327103731,0.7338065513839865
362,0.3845178385018087,0.4903829888947396,0.6408386932607295,0.6664273601255795
363,0.3845178385018087,0.4903829888947396,0.6408386932607295,0.6664273601255795
364,0.30866914191120426,0.3095618941274653,0.4840965661127519,0.6657032618855158
365,0.30866914191120426,0.3095618941274653,0.4840965661127519,0.6657032618855158
366,0.3362192244816423,0.30703765637638175,0.6500250596247756,0.6916288450362634
367,0.3362192244816423,0.30703765637638175,0.6500250596247756,0.6916288450362634
368,0.45207092818073047,0.514248149743057,0.6760439365951657,0.9314144799039832
369,0.45207092818073047,0.514248149743057,0.6760439365951657,0.9314144799039832
370,0.6237043279338305,0.6408386932607295,0.809703514141065,0.916685570904701
371,0.6237043279338305,0.6408386932607295,0.809703514141065,0.916685570904701
372,0.3913404886513949,0.444465485470982,0.6443969890673368,0.9249539956003756
373,0.3913404886513949,0.444465485470982,0.6443969890673368,0.9249539956003756
374,0.5622383927931763,0.6978564744558164,0.8361834974791696,1.039139081386326
375,0.5622383927931763,0.6978564744558164,0.8361834974791696,1.039139081386326
376,0.3762652073103171,0.41647616072978094,0.6875478335475382,0.9128358187963272
377,0.3762652073103171,0.41647616072978094,0.6875478335475382,0.9128358187963272
378,0.5437474841051391,0.5930660501317511,0.7659122056707544,0.8866504772541782
379,0.5437474841051391,0.5930660501317511,0.7659122056707544,0.8866504772541782
380,0.3147351208682978,0.1533529089135007,0.6119603810728391,0.9334760123954209
381,0.3147351208682978,0.1533529089135007,0.6119603810728391,0.9334760123954209
382,0.353384848806485,0.4024122213678949,0.6585787105921785,0.6978564744558164
383,0.353384848806485,0.4024122213678949,0.6585787105921785,0.6978564744558164
384,0.4016894128701363,0.45064626810454844,0.6591122798931472,1.0139931378923273
385,0.4016894128701363,0.45064626810454844,0.6591122798931472,1.0139931378923273
386,0.3174348574398941,0.3961163226318746,0.6500250596247756,0.6978564744558164
387,0.3174348574398941,0.3961163226318746,0.6500250596247756,0.6978564744558164
388,0.6399483106782053,0.6963656618433378,0.889552848926086,0.9621929878021367
389,0.6399483106782053,0.6963656618433378,0.889552848926086,0.9621929878021367
390,0.23574977644975215,0.21601688615780973,0.37244297812130445,0.6609447461887997
391,0.23574977644975215,0.21601688615780973,0.37244297812130445,0.6609447461887997
392,0.49383119665562886,0.6472490450577826,0.7539801223713605,0.8314700051626005
393,0.49383119665562886,0.6472490450577826,0.7539801223713605,0.8314700051626005
394,0.3582578792665553,0.4680062913964207,0.6408386932607295,0.6969223300428835
395,0.3582578792665553,0.4680062913964207,0.6408386932607295,0.6969223300428835
396,0.47733291762432367,0.5551161226483391,0.6550931385595012,0.914822469507026
397,0.47733291762432367,0.5551161226483391,0.6550931385595012,0.914822469507026
398,0.3457279292533376,0.39534232698871474,0.5734126155628319,0.7887232514244678
399,0.3457279292533376,0.39534232698871474,0.5734126155628319,0.7887232514244678
