entropy,latitude,longitude
0,0.0,-23.094694699999994,-47.21631384230773
1,0.0,-23.52107618675408,-46.53096907960387
2,0.0,-23.66530387428571,-46.653012191428566
3,0.0,-23.457868125028618,-47.470805062712756
4,0.0,-18.502921543243254,-54.73349541351351
5,0.0,-25.812945236708064,-48.536803898219716
6,0.0,-8.005549875322837,-35.02457077193717
7,0.0,-18.945209367238093,-48.281750384571424
8,0.0,-30.026432041176477,-51.16367333529411
9,0.0,-23.712548407857145,-46.413501300476184
10,0.0,-15.613471375508082,-56.05821806374
11,0.0,-24.16638727647058,-46.789119798039174
12,0.0,-30.05606049016381,-51.19711031476857
13,0.0,-3.7197106126811765,-38.51755195796119
14,0.0,-5.797798963310526,-35.20753302888987
15,0.0,-15.615175049999998,-56.014032125
16,0.0,-23.590589999999995,-46.738631600000005
17,0.0,-23.02435496923077,-43.461266615384616
18,0.0,-27.683779186984268,-48.7674210182604
19,0.0,-22.901692445454547,-43.276261818181815
20,0.0,-19.931033513490274,-44.08181908601054
21,0.0,-22.929069159873716,-43.369145753952296
22,0.0,-23.634130648385938,-46.71132434972374
23,0.0,-16.717793729776197,-43.88009617830339
24,0.0,-22.205227363999995,-54.8452216175
25,0.0,-22.98023406594757,-43.234349570511895
26,0.0,-23.478811074999996,-51.78884343611111
27,0.0,-22.980177199444284,-43.218973802061704
28,0.0,-23.47734153158576,-46.889708243735164
29,0.0,-15.55664441944907,-56.07217557471977
30,0.0,-8.060254098449766,-34.90692664728698
31,0.0,-21.786394256179097,-43.36606539193454
32,0.0,-1.3800508726432,-48.4316273818848
33,0.0,-22.9394679828,-43.341563066000006
34,0.0,-23.243154972727282,-44.6432259
35,0.0,-29.255990320616245,-51.52515187606971
36,0.0,-22.77646202941176,-43.37009688823531
37,0.0,-22.883581854545458,-43.28118510909091
38,0.0,-23.953057942607575,-46.3291268387903
39,0.0,-3.6850119225000006,-38.858450375
40,0.0,-15.803043331219508,-47.92382085317073
41,0.0,-22.869528991250004,-43.302209291562505
42,0.0,-18.4104348068847,-49.21606751508451
43,0.0,-29.99799479615385,-51.10534808461539
44,0.0,-2.4604272238095244,-54.71384516666666
45,0.0,-22.519928508333333,-43.192872200000004
46,0.0,-22.877364524046158,-43.48301161715743
47,0.0,-5.878971948987143,-35.214430043726274
48,0.0,-12.995799079569892,-38.47797314731183
49,0.0,-17.70966619999999,-48.63626920000001
50,0.0,-1.4469607372714541,-48.47279022337817
51,0.0,-13.001410765819216,-38.51745696467
52,0.0,-22.967660480000003,-42.958240535
53,0.0,-8.11544626875,-34.90031456875
54,0.0,-23.10869090865672,-48.92803816746269
55,0.0,-29.188550992424243,-51.17333946484849
56,0.0,-20.238269594224256,-41.5108087732066
57,0.0,-23.58449589999999,-46.60644700000004
58,0.0,-9.657135362446956,-35.70013044415956
59,0.0,-22.526606674214342,-44.20156329622623
60,0.0,-26.857431416666653,-49.110696163333365
61,0.0,-22.843102182820967,-51.976237950668306
62,0.0,-23.609812733333325,-46.664042576190454
63,0.0,-21.777205286745264,-48.18158688180103
64,0.0,-6.8512165384722215,-35.480841475555565
65,0.0,-30.02681377780906,-51.202174363665165
66,0.0,-12.946684336228001,-38.482278556169284
67,0.0,-22.790268548888886,-43.310558944444445
68,0.0,-33.433343435,-70.62227541500002
69,0.0,-23.26843409117648,-47.30528541764708
70,0.0,-15.756169715747918,-47.88062967383062
71,0.0,-4.8521826075542105,-39.57790415314896
72,0.0,-25.588333832366008,-49.39034786282567
73,0.0,-23.562509788864237,-46.924654464614946
74,0.0,-22.835379095897444,-43.308841135128205
75,0.0,-3.0875922304347823,-60.021703226086956
76,0.0,-20.438178546829263,-54.598290315122
77,0.0,-15.869541668608019,-48.06985006511351
78,0.0,-18.45832471224014,-43.7461155959133
79,0.0,-23.668516730952373,-46.56281091428572
80,0.0,-12.97207829677419,-39.24170372580646
81,0.0,-31.390971283040773,-52.679334705248834
82,0.0,-23.48861490114717,-46.85510984362579
83,0.0,-3.7251388387755107,-38.50098124897959
84,0.0,-19.962835731578945,-43.967193636842104
85,0.0,-7.19881681518384,-48.19942139785476
86,0.0,-23.009506113636373,-45.52719662045455
87,0.0,-30.040160512903203,-51.1897304168612
88,0.0,-7.060108215357639,-34.8517233249614
89,0.0,-22.866706207692307,-43.11554404615385
90,0.0,-5.773524273978149,-35.27593314496778
91,0.0,-15.755142987470714,-47.888842769977494
92,0.0,-23.618424310625002,-46.53021648458333
93,0.0,-23.504933877145316,-46.429106636567596
94,0.0,-15.622680567199707,-46.416531556329424
95,0.0,-22.758177085519332,-43.47807067170804
96,0.0,-22.93799534444444,-43.33542871296307
97,0.0,-5.851851788760871,-35.20810384577717
98,0.0,-23.59682450294118,-46.550144949999996
99,0.0,-23.584098539507146,-46.57253614297215
100,0.0,-21.247330054974135,-44.990175749426804
101,0.0,-22.927427833333336,-43.24876998333334
102,0.0,-22.973574521739128,-43.186304934782605
103,0.0,-1.9455823500711606,-54.74123808706797
104,0.0,-23.577810867439233,-46.77146921628385
105,0.0,-5.772259268665782,-35.20152647918253
106,0.0,-19.95718331814476,-44.01239234900374
107,0.0,-22.433889955034687,-45.45788043325275
108,0.0,-23.58278901857143,-46.745247479795914
109,0.0,-23.466946528317653,-47.502267723163236
110,0.0,-23.774513274509818,-53.31490525882349
111,0.0,-1.345448429863749,-48.24279240992996
112,0.0,-23.527611869999998,-46.522868682500004
113,0.0,-12.989561745649146,-38.508412501829284
114,0.0,-3.0424680475015156,-60.000172193929096
115,0.0,-23.566277723333332,-46.64378625333333
116,0.0,-22.919783512500004,-43.17859181875
117,0.0,-27.03131990266667,-48.66709504133335
118,0.0,0.025811324561403504,-51.150278636842124
119,0.0,-3.089000620172964,-60.03288442274999
120,0.0,-29.16959268565652,-51.511274297081634
121,0.0,-10.94974032197,-37.08880374753
122,0.0,-3.8051748751401857,-38.48161917943926
123,0.0,-19.813270106666668,-43.98315944666667
124,0.0,-23.535832775,-46.786373887500005
125,0.0,-28.494712053628632,-49.00562606123673
126,0.0,-2.5014416531914896,-44.28863039574469
127,0.0,-4.990724683490002,-39.014038870460006
128,0.0,-24.718782824907354,-53.714066138910596
129,0.0,-23.523366175846004,-46.641481138171144
130,0.0,-23.00549887564583,-43.32592716466459
131,0.0,-23.543930377439295,-46.68551512925054
132,0.0,-7.069092707067443,-34.83742329512698
133,0.0,-26.774483574095385,-48.65821783991539
134,0.0,-23.64056382727273,-46.73482565303029
135,0.0,-22.902087397959185,-43.17426854081633
136,0.0,-15.793304376016577,-47.92879558013886
137,0.0,-21.837085916626908,-47.24751971325218
138,0.0,-23.639433779999997,-46.71516300872727
139,0.0,-9.934086184015564,-63.025775539229365
140,0.0,-10.167923027777777,-54.930083733333326
141,0.0,-22.860646985000002,-43.461512375
142,0.0,-2.974204435217391,-60.01263308260867
143,0.0,-3.0845482090847276,-60.049833790194
144,0.0,2.789244702604075,-60.70584988305507
145,0.0,-18.903513133500006,-48.26222757999999
146,0.0,-30.16317323298159,-51.189922813093425
147,0.0,-22.390451323821292,-41.806868584850655
148,0.0,-21.46930119567568,-47.013525486756755
149,0.0,-9.966692276011088,-67.79915807204966
150,0.0,-15.566572553178114,-56.086644510720745
151,0.0,-3.748350605686293,-38.5763530230782
152,0.0,-22.898692095974884,-43.2944469410817
153,0.0,-4.406144511889998,-40.40574575965119
154,0.0,-23.48296461311793,-46.61411259420724
155,0.0,-15.822478727272726,-47.900376236363634
156,0.0,-30.03022378979591,-51.17296931020407
157,0.0,-23.014327677778,-51.94773330888868
158,0.0,-15.787064944444447,-47.83261868888889
159,0.0,-15.948422771748787,-47.964940930388785
160,0.0,-23.55228327360824,-46.580231758218815
161,0.0,-9.774188190105628,-36.643632498840645
162,0.0,-15.564489374793528,-56.09418985125354
163,0.0,-3.0601876091643407,-59.99173786631733
164,0.0,-3.0396816648336102,-60.008886456023056
165,0.0,-23.203635600084997,-45.86459973747112
166,0.0,2.807626341661142,-60.67991597076443
167,0.0,-22.92837354374999,-43.23204991875
168,0.0,-22.97089229666667,-43.42391667333333
169,0.0,-22.938419230973544,-43.36703733670194
170,0.0,-23.594438960384615,-46.595078350769235
171,0.0,-18.92008142787964,-48.248557633203745
172,0.0,-23.492203473050846,-46.64890062322034
173,0.0,-20.279046442112104,-40.29231999230185
174,0.0,-5.863342665431251,-37.309745344298754
175,0.0,-9.973098092773494,-67.82337937343938
176,0.0,-23.547252777500006,-46.64825424749999
177,0.0,-3.759929832258065,-38.619148258064506
178,0.0,-22.30737559932693,-49.09798889595712
179,0.0,-19.950334960400625,-43.93873943040666
180,0.0,-7.2368828949493915,-35.87997806464637
181,0.0,-3.065791513045931,-59.98383379458492
182,0.0,-23.53156774682643,-46.633881961686775
183,0.0,-22.912321292023126,-43.58446263440666
184,0.0,-8.11091717909375,-35.00671077644375
185,0.0,-22.342266999999996,-42.51249040000001
186,0.0,-3.735455666770416,-38.560235553253335
187,0.0,2.85150181341091,-60.64982239217454
188,0.0,-15.841901475956229,-48.10277470327869
189,0.0,-8.10933525739936,-34.90699819495936
190,0.0,-23.534246217726317,-46.69283783498
191,0.0,-8.08914799139774,-34.89727528279582
192,0.0,-3.8087013837847374,-38.567097510597634
193,0.0,-27.20996468897083,-49.63646496554
194,0.0,-23.625268392031607,-46.525136597652136
195,0.0,-22.4193401095864,-43.679641121272404
196,0.0,-15.820821247082263,-47.99272370044
197,0.0,-23.36701770258023,-47.799965524476924
198,0.0,-8.138929164102562,-34.90632476923077
199,0.0,-21.21985502,-47.830919516
