metric,Casa,Deslocamento,Outro,accuracy,epochs,tests
f1-score,"[0.2381977803544807, 0.25940659704956076, 0.25346271875259185, 0.2536123567513702, 0.24358141046473836]","[0.8233786810370964, 0.8228745830357929, 0.8224258547640162, 0.8229734928824395, 0.8199569161445878]","[0.2761283077139047, 0.24549306902248078, 0.274005175187076, 0.25749483728548034, 0.2425939572586588]","[0.7077810963847925, 0.707150433643227, 0.7074292508173897, 0.706874637123982, 0.7024772577040511]",8,5
precision,"[0.49844020797227034, 0.4993618379068283, 0.4769038701622971, 0.4810964083175803, 0.4722747321991178]","[0.7363467795542805, 0.7323315863702052, 0.7378712871287129, 0.7344567112144103, 0.7302987097569132]","[0.4646822584455469, 0.4826320248517368, 0.47102668910795864, 0.4808510638297872, 0.46327047565437657]","[0.7077810963847925, 0.707150433643227, 0.7074292508173897, 0.706874637123982, 0.7024772577040511]",8,5
recall,"[0.15649145717705953, 0.17521271831616658, 0.17259685982152942, 0.17219215155615697, 0.1641121086052113]","[0.9337414875446418, 0.938965039960709, 0.9288671266414422, 0.9357501794687725, 0.9347106134679073]","[0.1964250049930098, 0.16461182816413023, 0.19319526627218936, 0.17582417582417584, 0.16432065488669262]","[0.7077810963847925, 0.707150433643227, 0.7074292508173897, 0.706874637123982, 0.7024772577040511]",8,5
