metric,Casa,Deslocamento,Outro,accuracy,epochs,tests
f1-score,"[0.2893681043129388, 0.20631700956244572, 0.31008134089228495, 0.22497785651018598, 0.1538922155688623, 0.2908622908622909, 0.22455344485398357, 0.3091928797854182, 0.26749192680301404, 0.28996664100590197]","[0.8134850823968692, 0.8201735965280694, 0.8163848875862314, 0.8197501487209994, 0.818478146577407, 0.8178630874384674, 0.8195906944201504, 0.8140202339097368, 0.8188837570073688, 0.8179343021816767]","[0.27355623100303955, 0.24078144078144076, 0.2595494613124388, 0.25710158883004336, 0.2486461031316223, 0.2397397397397397, 0.2306540189715427, 0.2611634081583394, 0.2411487992077247, 0.23553299492385793]","[0.6916772800265796, 0.6958303339055318, 0.6965501965778836, 0.6992635251121324, 0.6900160584749986, 0.6972146851985159, 0.696162578215848, 0.6932831275264411, 0.6975469295088321, 0.6974361814053934]",6,10
precision,"[0.37860892388451445, 0.3606889564336373, 0.3948524795982423, 0.41278439869989164, 0.29337899543379, 0.3976073187895848, 0.37253057384760113, 0.38729383017715335, 0.39696485623003197, 0.39427773900907187]","[0.7437143044705573, 0.7345160481444333, 0.7436348245099954, 0.7340352196528169, 0.7338319401671799, 0.7393865659217519, 0.7337300344503601, 0.7437393470565098, 0.737661182747888, 0.7385224442883597]","[0.44930875576036866, 0.4401785714285714, 0.47790802524797116, 0.4529262086513995, 0.41509433962264153, 0.4691478942213516, 0.4481086323957323, 0.4631849315068493, 0.45770676691729323, 0.48082901554404145]","[0.6916772800265796, 0.6958303339055318, 0.6965501965778836, 0.6992635251121324, 0.6900160584749986, 0.6972146851985159, 0.696162578215848, 0.6932831275264411, 0.6975469295088321, 0.6974361814053934]",6,10
recall,"[0.23417207792207792, 0.1444805194805195, 0.255275974025974, 0.1546266233766234, 0.10430194805194805, 0.22930194805194806, 0.16071428571428573, 0.2573051948051948, 0.20170454545454544, 0.22930194805194806]","[0.89770206022187, 0.9284469096671949, 0.9049128367670365, 0.9281299524564184, 0.9251980982567354, 0.9149762282091918, 0.9282091917591125, 0.8989698890649762, 0.9202060221870048, 0.9164817749603803]","[0.19663865546218487, 0.1657142857142857, 0.1781512605042017, 0.17949579831932774, 0.17747899159663866, 0.16100840336134453, 0.15529411764705883, 0.18184873949579833, 0.16369747899159665, 0.15596638655462186]","[0.6916772800265796, 0.6958303339055318, 0.6965501965778836, 0.6992635251121324, 0.6900160584749986, 0.6972146851985159, 0.696162578215848, 0.6932831275264411, 0.6975469295088321, 0.6974361814053934]",6,10
