metric,Casa,Deslocamento,Outro,accuracy,epochs,tests
f1-score,[0.30731812003719866],[0.8193685972814605],[0.27849167895512955],[0.7037832119967644],8,1
precision,[0.44843423799582466],[0.7438616172399443],[0.4691270404542229],[0.7037832119967644],8,1
recall,[0.2337577538361084],[0.9119362924513653],[0.19802276812462552],[0.7037832119967644],8,1
