metric,f1-score,location,precision,recall
0,0.7751770365965728,Casa,0.7834353146853147,0.767091045255162
1,0.7085005472455308,Deslocamento,0.7048636316499015,0.7121751886001676
2,0.29177837354781055,Outro,0.28565179352580927,0.29817351598173514
