metric,f1-score,location,precision,recall
0,0.7803657781570537,Casa,0.8291759267490444,0.7369826646228725
1,0.7381045898327909,Deslocamento,0.7027445742904841,0.7772115626061653
2,0.3052501463795459,Outro,0.3066265847601621,0.3038860103626943
