metric,Casa,Deslocamento,Outro,accuracy,epochs,tests
f1-score,[0.7803657781570537],[0.7381045898327909],[0.3052501463795459],[0.7099138107661417],8,1
precision,[0.8291759267490444],[0.7027445742904841],[0.3066265847601621],[0.7099138107661417],8,1
recall,[0.7369826646228725],[0.7772115626061653],[0.3038860103626943],[0.7099138107661417],8,1
