metric,Casa,Deslocamento,Outro,accuracy,epochs,tests
f1-score,[0.7751770365965728],[0.7085005472455308],[0.29177837354781055],[0.6935154878800815],8,1
precision,[0.7834353146853147],[0.7048636316499015],[0.28565179352580927],[0.6935154878800815],8,1
recall,[0.767091045255162],[0.7121751886001676],[0.29817351598173514],[0.6935154878800815],8,1
