metric,f1-score,location,precision,recall
0,0.7811636778182137,Casa,0.8126254333150885,0.7520472773322077
1,0.7555634680434394,Deslocamento,0.6839424998388448,0.8439389118676424
2,0.1822405782137326,Outro,0.38876651982378857,0.11901550910316926
