metric,Casa,Deslocamento,Outro,accuracy,epochs,tests
f1-score,[0.0462962962962963],[0.8244243561316731],[0.24174780337212062],[0.7006478764051166],6,1
precision,[0.46875],[0.7238095238095238],[0.41181229773462785],[0.7006478764051166],6,1
recall,[0.024350649350649352],[0.9575277337559429],[0.1710924369747899],[0.7006478764051166],6,1
