metric,Casa,Deslocamento,Outro,accuracy,epochs,tests
f1-score,[0.7824051583270769],[0.7589111889844607],[0.18853305785123967],[0.7282985794105832],6,1
precision,[0.8203370994628635],[0.6837170737929715],[0.40286975717439294],[0.7282985794105832],6,1
recall,[0.7478260869565218],[0.8526885141584474],[0.12306136210384357],[0.7282985794105832],6,1
