metric,f1-score,location,precision,recall
0,0.7730045197244284,Casa,0.8048245614035088,0.7436048965808358
1,0.771034672285073,Casa,0.8427112535042051,0.7105951878429717
2,0.7767798466593647,Casa,0.8073770491803278,0.7484170536091178
3,0.7428612685462619,Deslocamento,0.680084605724106,0.8184059815462934
4,0.7552380298138351,Deslocamento,0.664611292467658,0.8744829780464525
5,0.7506247580162613,Deslocamento,0.6732116926573647,0.8481546293350303
6,0.24368568755846584,Outro,0.3977099236641221,0.17565745111260958
7,0.19114951557999477,Outro,0.42790152403282533,0.12306136210384357
8,0.13937677053824363,Outro,0.43617021276595747,0.08293998651382332
