metric,Casa,Deslocamento,Outro,accuracy,epochs,tests
f1-score,"[0.18639262934089296, 0.1007936507936508, 0.061385317295727916, 0.14006024096385541, 0.13843212237093688, 0.16817687567959405, 0.13313046785850133, 0.144960362400906, 0.13444739840486136, 0.17262549656915854]","[0.8511299061715343, 0.8503730854823931, 0.8499967219563366, 0.8510246373474556, 0.8515661061655126, 0.8516357437881071, 0.8484990619136961, 0.8508462274421826, 0.8487534995333955, 0.8500132555673382]","[0.1434751261715934, 0.13845050215208035, 0.1825585341024771, 0.15176344852155327, 0.17951353203151765, 0.0908041554444017, 0.259816947150871, 0.17768595041322316, 0.23489308955686397, 0.17745803357314147]","[0.7440887798349319, 0.7423600267677894, 0.7421369618559001, 0.7436426500111533, 0.7448695070265448, 0.743921481151015, 0.7404639750167299, 0.7442003122908767, 0.7410774035244256, 0.7429734552754852]",8,10
precision,"[0.5019083969465649, 0.5720720720720721, 0.6548672566371682, 0.5195530726256983, 0.5709779179810726, 0.5032537960954447, 0.5287009063444109, 0.5470085470085471, 0.5283582089552239, 0.5074309978768577]","[0.7559715945771466, 0.7498124314653432, 0.7504196330381432, 0.753319357092942, 0.7551605169288346, 0.7518666435144991, 0.7619592033214995, 0.7548881863950357, 0.7590461997019374, 0.7567711099309612]","[0.5392953929539296, 0.5039164490861618, 0.496309963099631, 0.5298507462686567, 0.5097276264591439, 0.6082474226804123, 0.4480651731160896, 0.5170340681362725, 0.4610705596107056, 0.5038910505836576]","[0.7440887798349319, 0.7423600267677894, 0.7421369618559001, 0.7436426500111533, 0.7448695070265448, 0.743921481151015, 0.7404639750167299, 0.7442003122908767, 0.7410774035244256, 0.7429734552754852]",8,10
recall,"[0.1144473455178416, 0.05526544821583986, 0.03220191470844212, 0.08093994778067885, 0.07876414273281114, 0.10095735422106179, 0.07615317667536989, 0.0835509138381201, 0.07702349869451697, 0.10400348128807659]","[0.9736941567767783, 0.9820848136669439, 0.9800438430720387, 0.9778516894701036, 0.9761886763927734, 0.9819336306599138, 0.9572152090105073, 0.9747524378259883, 0.9625066142565576, 0.969461032579938]","[0.08274428274428275, 0.08024948024948025, 0.11185031185031186, 0.08856548856548857, 0.10893970893970895, 0.04906444906444907, 0.18295218295218296, 0.10727650727650728, 0.1575883575883576, 0.1076923076923077]","[0.7440887798349319, 0.7423600267677894, 0.7421369618559001, 0.7436426500111533, 0.7448695070265448, 0.743921481151015, 0.7404639750167299, 0.7442003122908767, 0.7410774035244256, 0.7429734552754852]",8,10
