,Casa,Deslocamento,Outro,accuracy
f1-score,0.25554850982878885,0.8477809189686297,0.25126827812593255,0.7399620789649788
precision,0.47079439252336447,0.7715437073775574,0.4450317124735729,0.7399620789649788
recall,0.1753698868581375,0.9407362612442361,0.17505197505197506,0.7399620789649788
