metric,Casa,Deslocamento,Outro,accuracy,epochs,tests
f1-score,"[0.7820700030974822, 0.7846707225009991, 0.7836621976749364, 0.7857931704731194, 0.7831266391074366]","[0.7402924482201256, 0.7361859967114068, 0.7348034515819751, 0.7294809313839251, 0.7329287963745296]","[0.32027318475916605, 0.33825459317585305, 0.3387820512820513, 0.33689243027888444, 0.3350987000481464]","[0.7148595844136874, 0.711828506737757, 0.7097104042654202, 0.707774896833802, 0.7082861629478143]",8,5
precision,"[0.8217407476287892, 0.8277121978639685, 0.8294361682066754, 0.8241289844329133, 0.826980848666917]","[0.7018031501674863, 0.7088887252374991, 0.7094719691920314, 0.7099834362294836, 0.7085994356156246]","[0.34295612009237875, 0.3293929712460064, 0.322846670739157, 0.319431852523421, 0.3197549770290965]","[0.7148595844136874, 0.711828506737757, 0.7097104042654202, 0.707774896833802, 0.7082861629478143]",8,5
recall,"[0.7460531869987337, 0.7458843393837062, 0.7426762346981849, 0.7508653440270157, 0.7436893203883496]","[0.7832484887050588, 0.7656697422844416, 0.762010817690105, 0.7500795418390073, 0.7589882278078269]","[0.3004045853000674, 0.3476062036412677, 0.35637221847606204, 0.35637221847606204, 0.3519892110586649]","[0.7148595844136874, 0.711828506737757, 0.7097104042654202, 0.707774896833802, 0.7082861629478143]",8,5
