metric,Casa,Deslocamento,Outro,accuracy,epochs,tests
f1-score,[0.7773760330578512],[0.7358889224268036],[0.28270377733598406],[0.7118650257459007],10,1
precision,[0.7930095723193115],[0.699971289118576],[0.3444767441860465],[0.7118650257459007],10,1
recall,[0.7623469818488814],[0.7756920139993637],[0.2397167902899528],[0.7118650257459007],10,1
