metric,Casa,Deslocamento,Outro,accuracy,epochs,tests
f1-score,"[0.3299807404237107, 0.36126424108783534, 0.3469197841057137, 0.362324344853779, 0.35996186844613914, 0.3589046416779957, 0.3543292102759277, 0.35937499999999994, 0.35969106289076863, 0.35963923337091314]","[0.7970965180900533, 0.7864028804831779, 0.7900628737923631, 0.7875507442489851, 0.7858632676709154, 0.7921571625133772, 0.7901689708141322, 0.7824633681837615, 0.782838694620561, 0.7897147696216174]","[0.3275931117340809, 0.3263874561584485, 0.3110920403346921, 0.327250852215761, 0.32109171182018864, 0.313423517169615, 0.3151565415716359, 0.31364305234391415, 0.3262924964795816, 0.318040274029479]","[0.6717426214076084, 0.6606124370120162, 0.6623290326153165, 0.6619967883050003, 0.6598925743396644, 0.6667035827011463, 0.663325765546265, 0.6547427875297636, 0.6562932609779057, 0.6634365136497038]",6,10
precision,"[0.3490267089180625, 0.33008730691739424, 0.320385012031626, 0.3404710920770878, 0.3394462423588637, 0.34413407821229053, 0.3335721963453959, 0.3194444444444444, 0.3288500336247478, 0.33484954513645904]","[0.762200853155954, 0.7688697100461807, 0.7653000594177065, 0.768969422423556, 0.7666164280331575, 0.7651358535144713, 0.7666169895678092, 0.7678694027004348, 0.768813507525403, 0.7678718466951119]","[0.40515106488360575, 0.42254273504273504, 0.43001186239620404, 0.40556660039761433, 0.398406374501992, 0.41147540983606556, 0.41125541125541126, 0.4186307519640853, 0.406312625250501, 0.4158523344191097]","[0.6717426214076084, 0.6606124370120162, 0.6623290326153165, 0.6619967883050003, 0.6598925743396644, 0.6667035827011463, 0.663325765546265, 0.6547427875297636, 0.6562932609779057, 0.6634365136497038]",6,10
recall,"[0.31290584415584416, 0.3989448051948052, 0.3782467532467532, 0.3871753246753247, 0.38311688311688313, 0.375, 0.3778409090909091, 0.4107142857142857, 0.3969155844155844, 0.38839285714285715]","[0.8353407290015847, 0.8047543581616482, 0.8164817749603803, 0.8070522979397782, 0.8061014263074485, 0.8211568938193344, 0.8152139461172742, 0.7976228209191759, 0.7973851030110936, 0.81283676703645]","[0.2749579831932773, 0.26588235294117646, 0.24369747899159663, 0.2742857142857143, 0.2689075630252101, 0.253109243697479, 0.25546218487394956, 0.2507563025210084, 0.27260504201680674, 0.2574789915966387]","[0.6717426214076084, 0.6606124370120162, 0.6623290326153165, 0.6619967883050003, 0.6598925743396644, 0.6667035827011463, 0.663325765546265, 0.6547427875297636, 0.6562932609779057, 0.6634365136497038]",6,10
