metric,Casa,Deslocamento,Outro,accuracy,epochs,tests
f1-score,"[0.7777297484222356, 0.7781160302687659, 0.778086473346067, 0.7784248956884562, 0.7786827815729551, 0.7801455077704593, 0.7779565917097994, 0.778101238322833, 0.7774039931844992, 0.7770853925824058]","[0.7353285277578594, 0.7379092820666866, 0.7397506458497136, 0.7371587576144996, 0.7410112150229143, 0.7346503749381447, 0.7372345232715771, 0.738880756671546, 0.7409497642297552, 0.7342826844417513]","[0.2882181110029211, 0.2914396887159533, 0.282015534754033, 0.28737412858249417, 0.2852091926929876, 0.29624003038359287, 0.29009388771795364, 0.2862176977290525, 0.279126213592233, 0.2823483212252111]","[0.7113172406237447, 0.7128875579739254, 0.7139100902019501, 0.7120841397947631, 0.7143483182996749, 0.7117919877296133, 0.7117189497133258, 0.7131431910309316, 0.7144943943322499, 0.710440784428295]",10,10
precision,"[0.7968819204535389, 0.802403803031662, 0.8008220891788044, 0.8022037086804622, 0.8089345828405059, 0.7959416725228391, 0.8023506190561637, 0.8016114592658907, 0.805595798623687, 0.7914040616246498]","[0.699605026929982, 0.6988620199146515, 0.6988045554219424, 0.6990443588646412, 0.6969930609097919, 0.7044309803635301, 0.7000143020594966, 0.6995238433657878, 0.6947984123668268, 0.7008386350491613]","[0.34117104656523745, 0.34452621895124197, 0.3445255474452555, 0.3375796178343949, 0.3416470588235294, 0.3391304347826087, 0.3359964491788726, 0.3412698412698413, 0.3488372093023256, 0.33803479078514337]","[0.7113172406237447, 0.7128875579739254, 0.7139100902019501, 0.7120841397947631, 0.7143483182996749, 0.7117919877296133, 0.7117189497133258, 0.7131431910309316, 0.7144943943322499, 0.710440784428295]",10,10
recall,"[0.7594765723934149, 0.755255382017729, 0.7566061629379485, 0.7560151962853525, 0.7506120726044745, 0.7649641198818067, 0.7550021105951878, 0.7559307724778388, 0.7511186154495568, 0.7632756437315323]","[0.7748965956092905, 0.7815781100859052, 0.7857938275532931, 0.7796691059497296, 0.7909640470887687, 0.7675787464206173, 0.7786350620426344, 0.7829303213490296, 0.7936684696150175, 0.7710785873369392]","[0.2494942683749157, 0.25252865812542147, 0.23870532703978423, 0.25016857720836144, 0.24477410654079568, 0.26298044504383006, 0.2552258934592043, 0.24645987862441, 0.23263654753877275, 0.24241402562373568]","[0.7113172406237447, 0.7128875579739254, 0.7139100902019501, 0.7120841397947631, 0.7143483182996749, 0.7117919877296133, 0.7117189497133258, 0.7131431910309316, 0.7144943943322499, 0.710440784428295]",10,10
