metric,f1-score,location,precision,recall
0,0.7774807397866187,Casa,0.8391081967213114,0.7242862641218955
1,0.7712363845767426,Casa,0.8048743063192082,0.7402973138260338
2,0.7741216249326213,Casa,0.8011512031848265,0.748856391173473
3,0.7704223257658372,Casa,0.8084525357607282,0.7358093073900488
4,0.7732908342535889,Casa,0.8066129116707681,0.7426126777536756
5,0.7436458301241566,Deslocamento,0.6690874819824815,0.836904514250052
6,0.7373068895717746,Deslocamento,0.6871273580295181,0.7953928312816799
7,0.7350443700515437,Deslocamento,0.6920967838773591,0.7836747643219725
8,0.7425346668996639,Deslocamento,0.6782340900982105,0.8203043379513968
9,0.7538047808764939,Deslocamento,0.6775227386664757,0.8494432971177157
10,0.25497952668471097,Outro,0.38262861903770046,0.19119483763530393
11,0.29448591379725503,Outro,0.37457886676875957,0.24261059313628247
12,0.3037160415829074,Outro,0.36911908418260503,0.2580015612802498
13,0.24284451696240397,Outro,0.38483085541909073,0.177393722685737
14,0.14327868852459016,Outro,0.4173829990448902,0.08648327726103305
