metric,Casa,Deslocamento,Outro,accuracy,epochs,tests
f1-score,[0.7846139417102395],[0.7370874370348095],[0.2818500797448166],[0.7212077493816983],8,1
precision,[0.8136108342045758],[0.6884278950325015],[0.36410087357837484],[0.7212077493816983],8,1
recall,[0.7576128053612262],[0.7931488801054019],[0.22991257285595337],[0.7212077493816983],8,1
