metric,Casa,Deslocamento,Outro,accuracy,epochs,tests
f1-score,"[0.7728870888780097, 0.7738519127179768, 0.773369688707112, 0.7703805593764329, 0.77181482998771, 0.7766170260057791, 0.7744113727232342, 0.7706056677162437, 0.7768320893893762, 0.776633801587994]","[0.7519178034641951, 0.7552591777808332, 0.7506885611686366, 0.7521845750008634, 0.753605188711792, 0.7518622628250177, 0.7472621859566244, 0.7522474425653566, 0.7440008686525028, 0.745164427475417]","[0.132454128440367, 0.18471337579617833, 0.21873467385973516, 0.21733699725206093, 0.19312516399895044, 0.18945158750983995, 0.2452480296708391, 0.2272177906695673, 0.23899668717463324, 0.21857387895123748]","[0.721067815798123, 0.7234415513274659, 0.7201913596026732, 0.7203374356352481, 0.7219077529854289, 0.7228937662053099, 0.7188766753094986, 0.7198261695212358, 0.7187671182850673, 0.719095789358361]",10,10
precision,"[0.8173004518072289, 0.8424609879733624, 0.8375, 0.8430506773707978, 0.8374160410904781, 0.82018779342723, 0.8172526957337084, 0.8533483745256897, 0.8041749502982107, 0.8035569197436129]","[0.6670567223009176, 0.6650121065375303, 0.668239091304078, 0.6647335327513583, 0.6654075788960644, 0.6734013091641491, 0.6792452830188679, 0.6633861855294332, 0.6826060968320382, 0.6809294977289184]","[0.4425287356321839, 0.4339152119700748, 0.4010791366906475, 0.41947926711668276, 0.43550295857988164, 0.4272189349112426, 0.39243323442136496, 0.4013663535439795, 0.4007936507936508, 0.4]","[0.721067815798123, 0.7234415513274659, 0.7201913596026732, 0.7203374356352481, 0.7219077529854289, 0.7228937662053099, 0.7188766753094986, 0.7198261695212358, 0.7187671182850673, 0.719095789358361]",10,10
recall,"[0.733051920641621, 0.7155761924862811, 0.7183621781342339, 0.7092444069227523, 0.7157450401013086, 0.7374419586323343, 0.7358379062895737, 0.7024905023216547, 0.7512874630645842, 0.7514563106796116]","[0.8615176582882597, 0.8738466433343939, 0.856347438752784, 0.866131084950684, 0.8687559656379256, 0.8510181355392936, 0.8304167992363983, 0.8685968819599109, 0.8175310213172129, 0.8227807826916959]","[0.07788267026298044, 0.11732973701955496, 0.15037086985839515, 0.1466621712744437, 0.12407282535401214, 0.12171274443695212, 0.17835468644639244, 0.15846257585974377, 0.17026298044504384, 0.15037086985839515]","[0.721067815798123, 0.7234415513274659, 0.7201913596026732, 0.7203374356352481, 0.7219077529854289, 0.7228937662053099, 0.7188766753094986, 0.7198261695212358, 0.7187671182850673, 0.719095789358361]",10,10
