metric,f1-score,location,precision,recall
0,0.353824305132887,Casa,0.3537525354969574,0.3538961038961039
1,0.3599062133645955,Casa,0.34702336096458175,0.3737824675324675
2,0.799254009697874,Deslocamento,0.7550387596899225,0.8489698890649763
3,0.7973881021980943,Deslocamento,0.7653961081553823,0.8321711568938194
4,0.28545329984014617,Outro,0.44515669515669515,0.21008403361344538
5,0.3189525649280962,Outro,0.4412114014251782,0.24974789915966386
