metric,Casa,Deslocamento,Outro,accuracy,epochs,tests
f1-score,"[0.3271202236719478, 0.3486081370449679, 0.33453399369653314, 0.34805082920525526, 0.3433326034596015]","[0.8114610673665792, 0.8034290420394565, 0.8063595597227885, 0.8044742729306487, 0.8018843234755298]","[0.29176149294492487, 0.32608236536430835, 0.32047730662689117, 0.318796992481203, 0.328059950041632]","[0.690680547095631, 0.6820421950274101, 0.6851985159754139, 0.6832050501135168, 0.6808793399413035]",8,5
precision,"[0.38402625820568925, 0.36899365367180414, 0.3756319514661274, 0.3708122992198256, 0.3728007608178792]","[0.7514177693761814, 0.7614418505641098, 0.7574322913040451, 0.7597183098591549, 0.759113753804771]","[0.45172656800563776, 0.43863636363636366, 0.43771827706635624, 0.44166666666666665, 0.4308365226899945]","[0.690680547095631, 0.6820421950274101, 0.6851985159754139, 0.6832050501135168, 0.6808793399413035]",8,5
recall,"[0.2849025974025974, 0.33035714285714285, 0.3015422077922078, 0.32792207792207795, 0.3181818181818182]","[0.881933438985737, 0.8503169572107765, 0.8620443740095087, 0.8548335974643423, 0.8497622820919176]","[0.21546218487394958, 0.25949579831932773, 0.2527731092436975, 0.24941176470588236, 0.26487394957983196]","[0.690680547095631, 0.6820421950274101, 0.6851985159754139, 0.6832050501135168, 0.6808793399413035]",8,5
