metric,f1-score,location,precision,recall
0,0.7863870623778212,Casa,0.8299728031510832,0.747150696496412
1,0.7839829530320518,Casa,0.8267016196985301,0.7454622203461376
2,0.783811070629033,Casa,0.8163862472567667,0.753735753482482
3,0.7831901514480559,Casa,0.8236006333240198,0.7465597298438159
4,0.784925904753529,Casa,0.8191079295154186,0.753482482059941
5,0.785992566387533,Casa,0.8369254243753577,0.7409033347403968
6,0.7819468553879023,Casa,0.8269629071737903,0.7415787252005065
7,0.787132716326714,Casa,0.8412561221549986,0.7395525538201773
8,0.7858770949720669,Casa,0.8349477682811016,0.7422541156606163
9,0.7844635466411971,Casa,0.8503253796095445,0.7280709159983115
10,0.7653873756877755,Deslocamento,0.6709808856132782,0.8907095132039453
11,0.7642710472279262,Deslocamento,0.6707111965401249,0.8881641743557112
12,0.7625804665328442,Deslocamento,0.6749785565494425,0.8763124403436208
13,0.7638339581112221,Deslocamento,0.6728264162375038,0.8833121221762648
14,0.7636200531345961,Deslocamento,0.6743038206081287,0.8802099904549793
15,0.7661789724396053,Deslocamento,0.6694612914734214,0.8955615653833917
16,0.7633263720086275,Deslocamento,0.670072729458436,0.8867324212535794
17,0.7660079319345107,Deslocamento,0.6674345797152814,0.8987432389436844
18,0.7661356209150327,Deslocamento,0.6696619852416091,0.8950843143493478
19,0.7674324597453346,Deslocamento,0.6655954189552413,0.9060610881323576
20,0.010677344010677344,Outro,0.5161290322580645,0.005394470667565745
21,0.021192052980132447,Outro,0.5925925925925926,0.01078894133513149
22,0.04917502426399223,Outro,0.608,0.02562373567093729
23,0.05085291277759897,Outro,0.5602836879432624,0.026635198921105867
24,0.03155818540433925,Outro,0.631578947368421,0.016183412002697236
25,0.026272577996715923,Outro,0.5063291139240507,0.013486176668914362
26,0.04660194174757282,Outro,0.5806451612903226,0.024275118004045852
27,0.014632524110409046,Outro,0.5365853658536586,0.007417397167902899
28,0.01791044776119403,Outro,0.5510204081632653,0.009103169251517195
29,0.043970255415454254,Outro,0.5354330708661418,0.022926500337154418
