metric,f1-score,location,precision,recall
0,0.30926071148499323,Casa,0.4483257544439851,0.23604309500489715
1,0.8125681075190702,Deslocamento,0.7452940196568383,0.8931922539429028
2,0.29974729475798617,Outro,0.42683151873039304,0.23097663271420013
