metric,Casa,Deslocamento,Outro,accuracy,epochs,tests
f1-score,[0.30926071148499323],[0.8125681075190702],[0.29974729475798617],[0.6960985626283368],8,1
precision,[0.4483257544439851],[0.7452940196568383],[0.42683151873039304],[0.6960985626283368],8,1
recall,[0.23604309500489715],[0.8931922539429028],[0.23097663271420013],[0.6960985626283368],8,1
