metric,Casa,Deslocamento,Outro,accuracy,epochs,tests
f1-score,"[0.30196133766050515, 0.22859098297544697, 0.321916397831011, 0.23753127606338614, 0.2836416394631846]","[0.8114873035066505, 0.8104015403746642, 0.8091967201367634, 0.8172950536146663, 0.8027661660731795]","[0.2925960142536624, 0.31396109690083873, 0.29082745349583067, 0.24931717907416484, 0.3011093502377179]","[0.6941540663306577, 0.6922692955637362, 0.6904557045195, 0.6991228207824, 0.6816865497812333]",8,5
precision,"[0.4292878635907723, 0.4845846935074356, 0.4102519244226732, 0.4561178731582319, 0.42033971188991615]","[0.7434775383592754, 0.7356796911984269, 0.7491707261595618, 0.730431556819587, 0.7407520286487105]","[0.4313229571984436, 0.4104837455280759, 0.4159633027522936, 0.44544544544544545, 0.38660197213961495]","[0.6941540663306577, 0.6922692955637362, 0.6904557045195, 0.6991228207824, 0.6816865497812333]",8,5
recall,"[0.23288714767656982, 0.1495745633676668, 0.26488196091720323, 0.16057735678845286, 0.21403547186336763]","[0.8931922539429028, 0.9020181274277805, 0.8796795014466948, 0.9276067839195979, 0.8761123752450042]","[0.2213900539245057, 0.2541899441340782, 0.22357001972386586, 0.1731012350481377, 0.24658081261854847]","[0.6941540663306577, 0.6922692955637362, 0.6904557045195, 0.6991228207824, 0.6816865497812333]",8,5
