metric,f1-score,location,precision,recall
0,0.24314442413162704,Casa,0.5745140388768899,0.15420289855072464
1,0.8252326783867633,Deslocamento,0.7229570574379417,0.9612141652613828
2,0.19847972972972971,Outro,0.5257270693512305,0.12233211868818324
