metric,f1-score,location,precision,recall
0,0.26726057906458794,Casa,0.5769230769230769,0.17391304347826086
1,0.26420323325635103,Casa,0.5553398058252427,0.17333333333333334
2,0.17809621289662228,Casa,0.5686274509803921,0.10558252427184465
3,0.2297955209347615,Casa,0.5327313769751693,0.14649286157666047
4,0.20132325141776938,Casa,0.5071428571428571,0.12558962264150944
5,0.8249313507072172,Deslocamento,0.7237930720974634,0.9589255601059986
6,0.8222036727879799,Deslocamento,0.7208196121478229,0.9567751335599806
7,0.8264935861399295,Deslocamento,0.7166533723300541,0.9760985031385804
8,0.8272470440514806,Deslocamento,0.7287307585952623,0.9565638233514822
9,0.8223134057030074,Deslocamento,0.713860582559293,0.9696227339539442
10,0.18893617021276596,Outro,0.5174825174825175,0.11556480999479438
11,0.20805101634117176,Outro,0.5506329113924051,0.12825552825552824
12,0.15894039735099338,Outro,0.5921052631578947,0.09178990311065782
13,0.24764150943396226,Outro,0.5585106382978723,0.1590909090909091
14,0.1637892872952634,Outro,0.6065573770491803,0.09467758444216991
