metric,f1-score,location,precision,recall
0,0.10037878787878789,Casa,0.36678200692041524,0.058145913329676356
1,0.8195217818539141,Deslocamento,0.7107377647918188,0.9676243093922652
2,0.12057026476578413,Outro,0.41225626740947074,0.07061068702290077
