metric,Casa,Deslocamento,Outro,accuracy,epochs,tests
f1-score,"[0.015224358974358974, 0.011213456147376852, 0.02000800320128051, 0.020675944333996023, 0.014382740711146624, 0.01603206412825651, 0.008853118712273641, 0.023837902264600717, 0.0176, 0.0176]","[0.826460424551588, 0.8265796929564473, 0.8269858541893362, 0.8261056247316445, 0.8264953040039544, 0.8266279415162217, 0.8265848265848266, 0.8262438346188222, 0.8263405580963744, 0.8259251876951698]","[0.09762125424776028, 0.1046831955922865, 0.11968408262454437, 0.12086590499098016, 0.10458715596330277, 0.12093862815884475, 0.12192192192192193, 0.13443396226415094, 0.1399535423925668, 0.15415244596131966]","[0.7050778005426657, 0.7049116783875076, 0.7066836480425273, 0.7050778005426657, 0.7048563043357883, 0.7056869151115787, 0.7053546708012626, 0.7053546708012626, 0.7049116783875076, 0.7045794340771915]",6,10
precision,"[0.59375, 0.42424242424242425, 0.7142857142857143, 0.5098039215686274, 0.46153846153846156, 0.6451612903225806, 0.5238095238095238, 0.5660377358490566, 0.6111111111111112, 0.6111111111111112]","[0.7067830002814522, 0.707398218112101, 0.7081944993505394, 0.7082743387891488, 0.707475317348378, 0.7083545449403247, 0.7082508624102245, 0.7095343680709535, 0.7102084994872964, 0.7110742477977348]","[0.6030534351145038, 0.5856164383561644, 0.6214511041009464, 0.5726495726495726, 0.5796610169491525, 0.5759312320916905, 0.571830985915493, 0.5467625899280576, 0.5138592750533049, 0.5009242144177449]","[0.7050778005426657, 0.7049116783875076, 0.7066836480425273, 0.7050778005426657, 0.7048563043357883, 0.7056869151115787, 0.7053546708012626, 0.7053546708012626, 0.7049116783875076, 0.7045794340771915]",6,10
recall,"[0.007711038961038961, 0.005681818181818182, 0.010146103896103896, 0.010551948051948052, 0.007305194805194805, 0.008116883116883116, 0.004464285714285714, 0.012175324675324676, 0.008928571428571428, 0.008928571428571428]","[0.9949286846275753, 0.9940570522979397, 0.993660855784469, 0.9909667194928684, 0.993660855784469, 0.9923137876386687, 0.9923930269413629, 0.9889064976228209, 0.9878763866877971, 0.9850237717908082]","[0.05310924369747899, 0.057478991596638655, 0.06621848739495799, 0.06756302521008403, 0.057478991596638655, 0.06756302521008403, 0.06823529411764706, 0.07663865546218487, 0.08100840336134454, 0.09109243697478991]","[0.7050778005426657, 0.7049116783875076, 0.7066836480425273, 0.7050778005426657, 0.7048563043357883, 0.7056869151115787, 0.7053546708012626, 0.7053546708012626, 0.7049116783875076, 0.7045794340771915]",6,10
