metric,Casa,Deslocamento,Outro,accuracy,epochs,tests
f1-score,[0.24314442413162704],[0.8252326783867633],[0.19847972972972971],[0.7098259122865752],10,1
precision,[0.5745140388768899],[0.7229570574379417],[0.5257270693512305],[0.7098259122865752],10,1
recall,[0.15420289855072464],[0.9612141652613828],[0.12233211868818324],[0.7098259122865752],10,1
