metric,Casa,Deslocamento,Outro,accuracy,epochs,tests
f1-score,"[0.26726057906458794, 0.26420323325635103, 0.17809621289662228, 0.2297955209347615, 0.20132325141776938]","[0.8249313507072172, 0.8222036727879799, 0.8264935861399295, 0.8272470440514806, 0.8223134057030074]","[0.18893617021276596, 0.20805101634117176, 0.15894039735099338, 0.24764150943396226, 0.1637892872952634]","[0.7099933043187144, 0.7069037832396611, 0.709661145211469, 0.7133097165991903, 0.7037413238530557]",10,5
precision,"[0.5769230769230769, 0.5553398058252427, 0.5686274509803921, 0.5327313769751693, 0.5071428571428571]","[0.7237930720974634, 0.7208196121478229, 0.7166533723300541, 0.7287307585952623, 0.713860582559293]","[0.5174825174825175, 0.5506329113924051, 0.5921052631578947, 0.5585106382978723, 0.6065573770491803]","[0.7099933043187144, 0.7069037832396611, 0.709661145211469, 0.7133097165991903, 0.7037413238530557]",10,5
recall,"[0.17391304347826086, 0.17333333333333334, 0.10558252427184465, 0.14649286157666047, 0.12558962264150944]","[0.9589255601059986, 0.9567751335599806, 0.9760985031385804, 0.9565638233514822, 0.9696227339539442]","[0.11556480999479438, 0.12825552825552824, 0.09178990311065782, 0.1590909090909091, 0.09467758444216991]","[0.7099933043187144, 0.7069037832396611, 0.709661145211469, 0.7133097165991903, 0.7037413238530557]",10,5
