metric,f1-score,location,precision,recall
0,0.7804083110769091,Casa,0.8413039234823345,0.7277332207682566
1,0.7816554809843399,Casa,0.8315088053307949,0.7374419586323343
2,0.7815403859899929,Casa,0.8299648923047728,0.738455044322499
3,0.7810618992004312,Casa,0.8345972928866277,0.7339805825242719
4,0.7825932662023688,Casa,0.8245466442325668,0.7447024060785141
5,0.7834324741132408,Casa,0.8193548387096774,0.7505276487969608
6,0.7831008511965774,Casa,0.8293373607702473,0.7417475728155339
7,0.7809937502770268,Casa,0.8221351250466592,0.7437737441958633
8,0.7823226035923885,Casa,0.8263360571052879,0.7427606585056986
9,0.7828425321812731,Casa,0.8191715102869268,0.7495989869143098
10,0.7604713406792032,Deslocamento,0.6753719824658887,0.8701081769010499
11,0.759654990318606,Deslocamento,0.6814248721025706,0.8581769010499523
12,0.759665401377759,Deslocamento,0.6805415617128463,0.859608654152084
13,0.7599706386102274,Deslocamento,0.6778699257965953,0.8646993318485523
14,0.7586182587240043,Deslocamento,0.6811621724268895,0.8559497295577474
15,0.7565366480925847,Deslocamento,0.6865923236514523,0.842348075087496
16,0.7596380664014366,Deslocamento,0.6814477923062346,0.858097359210945
17,0.759005687802823,Deslocamento,0.6793840351979887,0.8597677378300986
18,0.7588717658702107,Deslocamento,0.6828880407124682,0.8538816417435571
19,0.7547506786683811,Deslocamento,0.6849714730290456,0.840359529112313
20,0.1971326164874552,Outro,0.4095744680851064,0.12980445043830074
21,0.20593368237347295,Outro,0.3952153110047847,0.1392447741065408
22,0.19389312977099238,Outro,0.39522821576763484,0.12845583277140932
23,0.19358151476251603,Outro,0.4058127018299246,0.12710721510451786
24,0.18790552815987543,Outro,0.4081172491544532,0.12204989885367498
25,0.21153374233128833,Outro,0.3886384129846709,0.14531355360755227
26,0.19164118246687054,Outro,0.3924843423799583,0.126770060687795
27,0.16169755573462263,Outro,0.39762219286657857,0.10148347943358058
28,0.203917629331994,Outro,0.39960629921259844,0.1368846931894808
29,0.21439060205580027,Outro,0.39107142857142857,0.14767363452461227
