metric,Casa,Deslocamento,Outro,accuracy,epochs,tests
f1-score,[0.7929329806207581],[0.756388064622486],[0.24464060529634296],[0.7365725474031327],8,1
precision,[0.8412150149845076],[0.6823564404290521],[0.4257681383940098],[0.7365725474031327],8,1
recall,[0.7498924585116258],[0.8484386196056677],[0.1716278101582015],[0.7365725474031327],8,1
