metric,f1-score,location,precision,recall
0,0.3148876404494382,Casa,0.44387250049495147,0.2439873762106867
1,0.8089908294356732,Deslocamento,0.7495883878049242,0.878618486723897
2,0.32244300865537,Outro,0.4137984981226533,0.2641302176952267
