metric,Casa,Deslocamento,Outro,accuracy,epochs,tests
f1-score,[0.211340206185567],[0.822250339753503],[0.08102157639806253],[0.7025213971778858],8,1
precision,[0.4871287128712871],[0.7138904711530637],[0.5257142857142857],[0.7025213971778858],8,1
recall,[0.13494240263302248],[0.9693922651933702],[0.04389312977099236],[0.7025213971778858],8,1
