metric,Casa,Deslocamento,Outro,accuracy,epochs,tests
f1-score,"[0.2652210175145955, 0.3007764609726195, 0.2917665867306155, 0.26403508771929823, 0.2347573620904189]","[0.8163913595933926, 0.8160689872752129, 0.8180810054390875, 0.8213854314374246, 0.8130951107307157]","[0.24827586206896549, 0.1682793437105595, 0.18236046016190882, 0.18987871183605184, 0.22433610780816488]","[0.6990291262135923, 0.6985991108128513, 0.6999915916925923, 0.7041160593792173, 0.6912138141188421]",10,5
precision,"[0.4725111441307578, 0.4617314930991217, 0.4274004683840749, 0.4499252615844544, 0.3958041958041958]","[0.7283204232004534, 0.7197180485995177, 0.7271191213742608, 0.7256867112100965, 0.7217473884140551]","[0.4702467343976778, 0.5847953216374269, 0.5544041450777202, 0.5523114355231143, 0.4973637961335677]","[0.6990291262135923, 0.6985991108128513, 0.6999915916925923, 0.7041160593792173, 0.6912138141188421]",10,5
recall,"[0.18434782608695652, 0.22303030303030302, 0.22148058252427186, 0.18684047175667287, 0.16686320754716982]","[0.9286918814743436, 0.9422049538610976, 0.9350555287300821, 0.9461584996975196, 0.9309162175404213]","[0.16866215512753774, 0.09828009828009827, 0.10912799592044875, 0.11464646464646465, 0.14483111566018425]","[0.6990291262135923, 0.6985991108128513, 0.6999915916925923, 0.7041160593792173, 0.6912138141188421]",10,5
