metric,Casa,Deslocamento,Outro,accuracy,epochs,tests
f1-score,"[0.20449223831410981, 0.2759117082533589, 0.30318357631657245, 0.324134124465296, 0.24968394437420988]","[0.8191925671078976, 0.8215881013516787, 0.8181147661897035, 0.8135337286207556, 0.8127567912561331]","[0.2604822173513399, 0.17766051011433595, 0.19501454745616104, 0.22212434852822432, 0.24688914027149322]","[0.7026009582477755, 0.7055593685655457, 0.7019852009448868, 0.694666310982786, 0.693695111586767]",8,5
precision,"[0.5034158838599487, 0.48292273236282196, 0.44391200174253975, 0.4175257731958763, 0.44860874503123227]","[0.7289882898310068, 0.7258221910256629, 0.7328869703109858, 0.737879147568525, 0.7291237989586502]","[0.44611286025672076, 0.5228235294117647, 0.4811796662786185, 0.4529940119760479, 0.42306760358614004]","[0.7026009582477755, 0.7055593685655457, 0.7019852009448868, 0.694666310982786, 0.693695111586767]",8,5
recall,"[0.12830558276199805, 0.1931258396775638, 0.23020445046876764, 0.2648849797023004, 0.17298007444712066]","[0.9348727845433775, 0.9464660445595392, 0.9257734253282884, 0.9064743359655419, 0.9180615946110348]","[0.18394248052726184, 0.1070121363899056, 0.1222879684418146, 0.14713604979091705, 0.17430368373764601]","[0.7026009582477755, 0.7055593685655457, 0.7019852009448868, 0.694666310982786, 0.693695111586767]",8,5
