metric,precision,recall,f1-score,location
0,0.21534870148818208,0.40482720789906745,0.28114285714285714,Casa
1,0.2795918367346939,0.4599888080581981,0.34778929553628096,Casa
2,0.2724916697519437,0.43015780245470486,0.33363553943789664,Casa
3,0.3081103678929766,0.43099415204678365,0.35933690882496344,Casa
4,0.29680029422581833,0.44858254585881047,0.3572377158034529,Casa
5,0.35714285714285715,0.20515267175572519,0.2606060606060606,Outro
6,0.36538461538461536,0.30514879546528106,0.3325611325611326,Outro
7,0.34657236126224156,0.30654475457170355,0.32533197139938713,Outro
8,0.3639112903225806,0.34169427354472315,0.3524530144007811,Outro
9,0.3556638246041413,0.2917082917082917,0.3205268935236004,Outro
10,0.7666106980091149,0.7062983425414364,0.7352196917414308,Deslocamento
11,0.7748175182481751,0.7057845744680851,0.7386917188587334,Deslocamento
12,0.7899532430164249,0.7247827521724782,0.7559660394676457,Deslocamento
13,0.783266367289057,0.7352190793122574,0.7584825771013333,Deslocamento
14,0.7764078245406046,0.728071150639244,0.7514629948364887,Deslocamento
